%YAML 1.1
%TAG !u! tag:unity3d.com,2011:
--- !u!1001 &100754942752957641
PrefabInstance:
  m_ObjectHideFlags: 0
  serializedVersion: 2
  m_Modification:
    m_TransformParent: {fileID: 0}
    m_Modifications:
    - target: {fileID: 2641108020587574812, guid: d5e6eb1f15534a6468901fc7cea0e97a, type: 3}
      propertyPath: isPlaceable
      value: 0
      objectReference: {fileID: 0}
    - target: {fileID: 4129838491457646831, guid: d5e6eb1f15534a6468901fc7cea0e97a, type: 3}
      propertyPath: m_LocalRotation.w
      value: 0.7071068
      objectReference: {fileID: 0}
    - target: {fileID: 4129838491457646831, guid: d5e6eb1f15534a6468901fc7cea0e97a, type: 3}
      propertyPath: m_LocalRotation.x
      value: 0
      objectReference: {fileID: 0}
    - target: {fileID: 4129838491457646831, guid: d5e6eb1f15534a6468901fc7cea0e97a, type: 3}
      propertyPath: m_LocalRotation.y
      value: 0.7071068
      objectReference: {fileID: 0}
    - target: {fileID: 4129838491457646831, guid: d5e6eb1f15534a6468901fc7cea0e97a, type: 3}
      propertyPath: m_LocalRotation.z
      value: 0
      objectReference: {fileID: 0}
    - target: {fileID: 4129838491457646831, guid: d5e6eb1f15534a6468901fc7cea0e97a, type: 3}
      propertyPath: m_LocalEulerAnglesHint.y
      value: 90
      objectReference: {fileID: 0}
    - target: {fileID: 4857105073703504012, guid: d5e6eb1f15534a6468901fc7cea0e97a, type: 3}
      propertyPath: m_Name
      value: Tile_ShoreCornerIn90
      objectReference: {fileID: 0}
    - target: {fileID: 4857105073703504013, guid: d5e6eb1f15534a6468901fc7cea0e97a, type: 3}
      propertyPath: m_RootOrder
      value: 0
      objectReference: {fileID: 0}
    - target: {fileID: 4857105073703504013, guid: d5e6eb1f15534a6468901fc7cea0e97a, type: 3}
      propertyPath: m_LocalPosition.x
      value: 0
      objectReference: {fileID: 0}
    - target: {fileID: 4857105073703504013, guid: d5e6eb1f15534a6468901fc7cea0e97a, type: 3}
      propertyPath: m_LocalPosition.y
      value: 0
      objectReference: {fileID: 0}
    - target: {fileID: 4857105073703504013, guid: d5e6eb1f15534a6468901fc7cea0e97a, type: 3}
      propertyPath: m_LocalPosition.z
      value: 0
      objectReference: {fileID: 0}
    - target: {fileID: 4857105073703504013, guid: d5e6eb1f15534a6468901fc7cea0e97a, type: 3}
      propertyPath: m_LocalRotation.w
      value: 1
      objectReference: {fileID: 0}
    - target: {fileID: 4857105073703504013, guid: d5e6eb1f15534a6468901fc7cea0e97a, type: 3}
      propertyPath: m_LocalRotation.x
      value: 0
      objectReference: {fileID: 0}
    - target: {fileID: 4857105073703504013, guid: d5e6eb1f15534a6468901fc7cea0e97a, type: 3}
      propertyPath: m_LocalRotation.y
      value: 0
      objectReference: {fileID: 0}
    - target: {fileID: 4857105073703504013, guid: d5e6eb1f15534a6468901fc7cea0e97a, type: 3}
      propertyPath: m_LocalRotation.z
      value: 0
      objectReference: {fileID: 0}
    - target: {fileID: 4857105073703504013, guid: d5e6eb1f15534a6468901fc7cea0e97a, type: 3}
      propertyPath: m_LocalEulerAnglesHint.x
      value: 0
      objectReference: {fileID: 0}
    - target: {fileID: 4857105073703504013, guid: d5e6eb1f15534a6468901fc7cea0e97a, type: 3}
      propertyPath: m_LocalEulerAnglesHint.y
      value: 0
      objectReference: {fileID: 0}
    - target: {fileID: 4857105073703504013, guid: d5e6eb1f15534a6468901fc7cea0e97a, type: 3}
      propertyPath: m_LocalEulerAnglesHint.z
      value: 0
      objectReference: {fileID: 0}
    - target: {fileID: 4857105075065373503, guid: d5e6eb1f15534a6468901fc7cea0e97a, type: 3}
      propertyPath: m_fontColor.b
      value: 0.5
      objectReference: {fileID: 0}
    - target: {fileID: 4857105075065373503, guid: d5e6eb1f15534a6468901fc7cea0e97a, type: 3}
      propertyPath: m_fontColor.g
      value: 0.5
      objectReference: {fileID: 0}
    - target: {fileID: 4857105075065373503, guid: d5e6eb1f15534a6468901fc7cea0e97a, type: 3}
      propertyPath: m_fontColor.r
      value: 0.5
      objectReference: {fileID: 0}
    m_RemovedComponents: []
  m_SourcePrefab: {fileID: 100100000, guid: d5e6eb1f15534a6468901fc7cea0e97a, type: 3}
