%YAML 1.1
%TAG !u! tag:unity3d.com,2011:
--- !u!1001 &6763073813423990875
PrefabInstance:
  m_ObjectHideFlags: 0
  serializedVersion: 2
  m_Modification:
    m_TransformParent: {fileID: 0}
    m_Modifications:
    - target: {fileID: 3934376038491983390, guid: 42c6a42849ef83345a8ce088ef4c09e1, type: 3}
      propertyPath: m_LocalRotation.w
      value: -0.7071068
      objectReference: {fileID: 0}
    - target: {fileID: 3934376038491983390, guid: 42c6a42849ef83345a8ce088ef4c09e1, type: 3}
      propertyPath: m_LocalRotation.x
      value: 0
      objectReference: {fileID: 0}
    - target: {fileID: 3934376038491983390, guid: 42c6a42849ef83345a8ce088ef4c09e1, type: 3}
      propertyPath: m_LocalRotation.y
      value: 0.7071068
      objectReference: {fileID: 0}
    - target: {fileID: 3934376038491983390, guid: 42c6a42849ef83345a8ce088ef4c09e1, type: 3}
      propertyPath: m_LocalRotation.z
      value: -0
      objectReference: {fileID: 0}
    - target: {fileID: 3934376038491983390, guid: 42c6a42849ef83345a8ce088ef4c09e1, type: 3}
      propertyPath: m_LocalEulerAnglesHint.y
      value: 270
      objectReference: {fileID: 0}
    - target: {fileID: 5525480545214445180, guid: 42c6a42849ef83345a8ce088ef4c09e1, type: 3}
      propertyPath: m_RootOrder
      value: 0
      objectReference: {fileID: 0}
    - target: {fileID: 5525480545214445180, guid: 42c6a42849ef83345a8ce088ef4c09e1, type: 3}
      propertyPath: m_LocalPosition.x
      value: 0
      objectReference: {fileID: 0}
    - target: {fileID: 5525480545214445180, guid: 42c6a42849ef83345a8ce088ef4c09e1, type: 3}
      propertyPath: m_LocalPosition.y
      value: 0
      objectReference: {fileID: 0}
    - target: {fileID: 5525480545214445180, guid: 42c6a42849ef83345a8ce088ef4c09e1, type: 3}
      propertyPath: m_LocalPosition.z
      value: 0
      objectReference: {fileID: 0}
    - target: {fileID: 5525480545214445180, guid: 42c6a42849ef83345a8ce088ef4c09e1, type: 3}
      propertyPath: m_LocalRotation.w
      value: 1
      objectReference: {fileID: 0}
    - target: {fileID: 5525480545214445180, guid: 42c6a42849ef83345a8ce088ef4c09e1, type: 3}
      propertyPath: m_LocalRotation.x
      value: 0
      objectReference: {fileID: 0}
    - target: {fileID: 5525480545214445180, guid: 42c6a42849ef83345a8ce088ef4c09e1, type: 3}
      propertyPath: m_LocalRotation.y
      value: 0
      objectReference: {fileID: 0}
    - target: {fileID: 5525480545214445180, guid: 42c6a42849ef83345a8ce088ef4c09e1, type: 3}
      propertyPath: m_LocalRotation.z
      value: 0
      objectReference: {fileID: 0}
    - target: {fileID: 5525480545214445180, guid: 42c6a42849ef83345a8ce088ef4c09e1, type: 3}
      propertyPath: m_LocalEulerAnglesHint.x
      value: 0
      objectReference: {fileID: 0}
    - target: {fileID: 5525480545214445180, guid: 42c6a42849ef83345a8ce088ef4c09e1, type: 3}
      propertyPath: m_LocalEulerAnglesHint.y
      value: 0
      objectReference: {fileID: 0}
    - target: {fileID: 5525480545214445180, guid: 42c6a42849ef83345a8ce088ef4c09e1, type: 3}
      propertyPath: m_LocalEulerAnglesHint.z
      value: 0
      objectReference: {fileID: 0}
    - target: {fileID: 5525480545214445181, guid: 42c6a42849ef83345a8ce088ef4c09e1, type: 3}
      propertyPath: m_Name
      value: Tile_ShoreCornerOut270
      objectReference: {fileID: 0}
    m_RemovedComponents: []
  m_SourcePrefab: {fileID: 100100000, guid: 42c6a42849ef83345a8ce088ef4c09e1, type: 3}
