%YAML 1.1
%TAG !u! tag:unity3d.com,2011:
--- !u!1001 &3355382715982766567
PrefabInstance:
  m_ObjectHideFlags: 0
  serializedVersion: 2
  m_Modification:
    m_TransformParent: {fileID: 0}
    m_Modifications:
    - target: {fileID: 1130194794683250462, guid: 9d6a701618e50394e9291052979b1047, type: 3}
      propertyPath: m_Enabled
      value: 0
      objectReference: {fileID: 0}
    - target: {fileID: 1130194796674792620, guid: 9d6a701618e50394e9291052979b1047, type: 3}
      propertyPath: m_RootOrder
      value: 0
      objectReference: {fileID: 0}
    - target: {fileID: 1130194796674792620, guid: 9d6a701618e50394e9291052979b1047, type: 3}
      propertyPath: m_LocalPosition.x
      value: 0
      objectReference: {fileID: 0}
    - target: {fileID: 1130194796674792620, guid: 9d6a701618e50394e9291052979b1047, type: 3}
      propertyPath: m_LocalPosition.y
      value: 0
      objectReference: {fileID: 0}
    - target: {fileID: 1130194796674792620, guid: 9d6a701618e50394e9291052979b1047, type: 3}
      propertyPath: m_LocalPosition.z
      value: 0
      objectReference: {fileID: 0}
    - target: {fileID: 1130194796674792620, guid: 9d6a701618e50394e9291052979b1047, type: 3}
      propertyPath: m_LocalRotation.w
      value: 1
      objectReference: {fileID: 0}
    - target: {fileID: 1130194796674792620, guid: 9d6a701618e50394e9291052979b1047, type: 3}
      propertyPath: m_LocalRotation.x
      value: 0
      objectReference: {fileID: 0}
    - target: {fileID: 1130194796674792620, guid: 9d6a701618e50394e9291052979b1047, type: 3}
      propertyPath: m_LocalRotation.y
      value: 0
      objectReference: {fileID: 0}
    - target: {fileID: 1130194796674792620, guid: 9d6a701618e50394e9291052979b1047, type: 3}
      propertyPath: m_LocalRotation.z
      value: 0
      objectReference: {fileID: 0}
    - target: {fileID: 1130194796674792620, guid: 9d6a701618e50394e9291052979b1047, type: 3}
      propertyPath: m_LocalEulerAnglesHint.x
      value: 0
      objectReference: {fileID: 0}
    - target: {fileID: 1130194796674792620, guid: 9d6a701618e50394e9291052979b1047, type: 3}
      propertyPath: m_LocalEulerAnglesHint.y
      value: 0
      objectReference: {fileID: 0}
    - target: {fileID: 1130194796674792620, guid: 9d6a701618e50394e9291052979b1047, type: 3}
      propertyPath: m_LocalEulerAnglesHint.z
      value: 0
      objectReference: {fileID: 0}
    - target: {fileID: 1130194796674792621, guid: 9d6a701618e50394e9291052979b1047, type: 3}
      propertyPath: m_Name
      value: Tile_ShoreStraight
      objectReference: {fileID: 0}
    - target: {fileID: 6723777620055473540, guid: 9d6a701618e50394e9291052979b1047, type: 3}
      propertyPath: m_Mesh
      value: 
      objectReference: {fileID: -2432090755550338912, guid: cdf72d6b092b7d74cbcba07dd2c5aa58, type: 3}
    - target: {fileID: 7525441005258883645, guid: 9d6a701618e50394e9291052979b1047, type: 3}
      propertyPath: isPlaceable
      value: 0
      objectReference: {fileID: 0}
    m_RemovedComponents: []
  m_SourcePrefab: {fileID: 100100000, guid: 9d6a701618e50394e9291052979b1047, type: 3}
